\relax 
\bibstyle{junsrt}
\citation{BueBueView}
\citation{Binaural}
\citation{UltraWave}
\citation{EarWind}
\citation{EarWind2}
\@writefile{toc}{\contentsline {section}{\numberline {1}企画目的}{2}}
\@writefile{lof}{\contentsline {figure}{\numberline {1}{\ignorespaces ささやきの快感}}{2}}
\newlabel{Feeling}{{1}{2}}
\@writefile{toc}{\contentsline {section}{\numberline {2}企画概要}{2}}
\@writefile{lof}{\contentsline {figure}{\numberline {2}{\ignorespaces システムの一使用例}}{3}}
\newlabel{Outline}{{2}{3}}
\@writefile{toc}{\contentsline {section}{\numberline {3}入出力仕様}{3}}
\@writefile{toc}{\contentsline {subsection}{\numberline {3.1}入力仕様}{4}}
\@writefile{toc}{\contentsline {subsection}{\numberline {3.2}出力仕様}{4}}
\@writefile{toc}{\contentsline {section}{\numberline {4}実装計画}{4}}
\@writefile{toc}{\contentsline {subsection}{\numberline {4.1}耳型入力装置}{4}}
\citation{Thermistor}
\citation{UltraWave}
\@writefile{lof}{\contentsline {figure}{\numberline {3}{\ignorespaces 耳型入力装置概要}}{5}}
\newlabel{HalfEar}{{3}{5}}
\@writefile{toc}{\contentsline {subsection}{\numberline {4.2}ヘッドホン型出力装置}{5}}
\@writefile{lof}{\contentsline {figure}{\numberline {4}{\ignorespaces ヘッドホン型入力装置概要}}{6}}
\newlabel{HeadPhone}{{4}{6}}
\@writefile{lof}{\contentsline {figure}{\numberline {5}{\ignorespaces 連続風の提示装置の試作実験風景(イメージ)}}{6}}
\newlabel{Test}{{5}{6}}
\@writefile{toc}{\contentsline {section}{\numberline {5}全体の構成}{7}}
\@writefile{lof}{\contentsline {figure}{\numberline {6}{\ignorespaces システム全体の構成}}{7}}
\newlabel{AllSystem}{{6}{7}}
\bibcite{BueBueView}{1}
\bibcite{Binaural}{2}
\bibcite{UltraWave}{3}
\bibcite{EarWind}{4}
\bibcite{EarWind2}{5}
\bibcite{Thermistor}{6}
\@writefile{toc}{\contentsline {section}{\numberline {6}スケジュール}{8}}
