\contentsline {section}{\numberline {1}企画目的}{2}
\contentsline {section}{\numberline {2}企画概要}{2}
\contentsline {section}{\numberline {3}入出力仕様}{3}
\contentsline {subsection}{\numberline {3.1}入力仕様}{4}
\contentsline {subsection}{\numberline {3.2}出力仕様}{4}
\contentsline {section}{\numberline {4}実装計画}{4}
\contentsline {subsection}{\numberline {4.1}耳型入力装置}{4}
\contentsline {subsection}{\numberline {4.2}ヘッドホン型出力装置}{5}
\contentsline {section}{\numberline {5}全体の構成}{7}
\contentsline {section}{\numberline {6}スケジュール}{8}
