\relax 
\citation{Thermistor}
\bibcite{Thermistor}{1}
\@writefile{toc}{\contentsline {section}{\numberline {I}目的}{1}}
\@writefile{lof}{\contentsline {figure}{\numberline {1}{\ignorespaces ささやきによる快感}}{1}}
\newlabel{Ear}{{1}{1}}
\@writefile{toc}{\contentsline {section}{\numberline {II}ささやき感の伝達}{1}}
\@writefile{toc}{\contentsline {subsection}{\numberline {II-A}耳型入力装置}{1}}
\@writefile{toc}{\contentsline {subsection}{\numberline {II-B}ヘッドホン型出力装置}{1}}
\@writefile{lof}{\contentsline {figure}{\numberline {2}{\ignorespaces Whispear の一使用例}}{1}}
\newlabel{Outline}{{2}{1}}
\@writefile{toc}{\contentsline {section}{\numberline {III}システム構成}{1}}
\@writefile{lof}{\contentsline {figure}{\numberline {3}{\ignorespaces システム構成}}{1}}
\newlabel{System}{{3}{1}}
\@writefile{toc}{\contentsline {section}{\numberline {IV}アピールポイント}{1}}
\@writefile{toc}{\contentsline {section}{References}{1}}
